Casos de Estudio. Dinámica de poblaciones
…
```
## Warning: NAs introducidos por coerción
```

```r
datos_censo
```

```
## # A tibble: 33 x 2
##      Any Parelles
##    <dbl>    <dbl>
##  1  1981       36
##  2  1982      200
##  3  1983      546
##  4  1984     1200
##  5  1985     1200
##  6  1986     2200
##  7  1987     1850
##  8  1988     2861
##  9  1989     4266
## 10  1990     4300
## # … with 23 more rows
```
…
---

# Ejercicio 1.

>b. Calcular la tasa intrínseca de crecimiento poblacional (r) media para todo
    el período y su desviación estándar.

```r
datos_censo_tasa_crecim
```

```
## # A tibble: 33 x 4
##      Any Parelles lambda        r
##    <dbl>    <dbl>  <dbl>    <dbl>
##  1  1981       36 NA     NA      
##  2  1982      200  5.56   1.71   
##  3  1983      546  2.73   1.00   
##  4  1984     1200  2.20   0.787  
##  5  1985     1200  1      0      
##  6  1986     2200  1.83   0.606  
##  7  1987     1850  0.841 -0.173  
##  8  1988     2861  1.55   0.436  
##  9  1989     4266  1.49   0.400  
## 10  1990     4300  1.01   0.00794
## # … with 23 more rows
```
…
```r
datos_finales <- t(matriz_final) %>%
  as.data.frame()
names(datos_finales) <- c('Crias', 'Inmaduros', 'Adultos', 'Madres')
datos_finales <- datos_finales %>%
  mutate(
    Total = Crias + Inmaduros + Adultos + Madres,
    Año = 2000:2050
  ) %>%
  pivot_longer(cols = Crias:Total, names_to = 'Stage')
datos_finales
```

```
## # A tibble: 255 x 3
##      Año Stage     value
##    <int> <chr>     <dbl>
##  1  2000 Crias         0
##  2  2000 Inmaduros     0
##  3  2000 Adultos     300
##  4  2000 Madres        0
##  5  2000 Total       300
##  6  2001 Crias        27
##  7  2001 Inmaduros     0
##  8  2001 Adultos     240
##  9  2001 Madres       57
## 10  2001 Total       324
## # … with 245 more rows
```
…
